[
  {
    "value": "Collaboration",
    "text": "Helping others is a priority, even when it is not immediately related to the goals that you are trying to achieve. Similarly, you can rely on others for help and advice&#x2014;in fact, you&apos;re expected to do so.\nAnyone can chime in on any subject, including people who don&apos;t work at GitLab.\nThe person who&apos;s responsible for the work decides how to do it, but they should always take each suggestion seriously and try to respond and explain why it may or may not have been implemented.",
    "subvalues": [
      {
        "title": "Kindness",
        "text": "We value caring for others. Demonstrating we care for people provides an effective framework for challenging directly and delivering feedback. We disagree with companies that say <a href=\"https://inside.bwater.com/publications/principles_excerpt\">Evaluate People Accurately, Not &quot;Kindly&quot;</a>. We&apos;re all for accurate assessment, but we think it must be done in a kind way. Give as much positive feedback as you can, and do it in a public way."
      },
      {
        "title": "Share",
        "text": "There are aspects of GitLab culture, such as extreme transparency, that are unintuitive to outsiders and new team members.\nBe willing to invest in people and engage in open dialogue.\nFor example, consider making private issues public wherever possible so that we can all learn from the experience."
      },
      {
        "title": "Negative is 1-1",
        "text": "Give negative feedback in the smallest setting possible.\nOne-on-one video calls are preferred.\nIf you are unhappy with anything (your duties, your colleague, your boss, your salary, your location, your computer) please let your boss, or the CEO, know as soon as you realize it.\nWe want to solve problems while they are <strong>small</strong>."
      },
      {
        "title": "Say thanks",
        "text": "Recognize the people that helped you publicly, for example in our <a href=\"/handbook/communication/#internal-communication\">#thanks chat channel</a>."
      },
      {
        "title": "Give feedback effectively",
        "text": "Giving feedback is challenging, but it&apos;s important to deliver it effectively. When providing feedback, always make it about the work itself; focus on the business impact and not the person. Make sure to provide at least one clear and recent example. If a person is going through a hard time in their personal life, then take that into account. An example of giving positive feedback is our <a href=\"/handbook/communication/#internal-communication\">thanks chat channel</a>. For managers, it&apos;s important to realize that employees react to a negative incident with their managers <a href=\"https://hbr.org/2013/03/the-delicate-art-of-giving-fee\">six times more strongly</a> than they do to a positive one. Keeping that in mind, if an error is so inconsequential that the value gained from providing criticism is low, it might make sense to keep that feedback to yourself. In the situations where negative feedback must be given, focus on the purpose for that feedback: to improve the employee&#x2019;s performance going forward. Give recognition generously, in the open, and often to <a href=\"http://www-01.ibm.com/common/ssi/cgi-bin/ssialias?infotype=SA&amp;subtype=WH&amp;htmlfid=LOW14298USEN\">generate more engagement</a> from your team."
      },
      {
        "title": "Get to know each other",
        "text": "We use a lot of text-based communication, and if you know the person behind the text, it will be easier to prevent conflicts. So we encourage people to get to know each other on a personal level through our <a href=\"/handbook/communication/#company-call\">company calls</a>, virtual <a href=\"/company/culture/all-remote/tips/#coffee-chats\">coffee chats</a>, and during <a href=\"/company/culture/contribute/\">GitLab Contribute</a>."
      },
      {
        "title": "Don&apos;t pull rank",
        "text": "If you have to remind someone of the position you have in the company, you&apos;re doing something wrong. People already know <a href=\"/handbook/leadership/#making-decisions\">our decision-making process</a>. Explain why you&apos;re making the decision, and respect everyone irrespective of their function."
      },
      {
        "title": "Assume positive intent",
        "text": "We naturally have a double standard when it comes to the actions of others. We blame circumstances for our own mistakes, but individuals for theirs. This double standard is called the <a href=\"https://en.wikipedia.org/wiki/Fundamental_attribution_error\">Fundamental Attribution Error</a>. In order to mitigate this bias you should always <a href=\"https://www.collaborativeway.com/general/a-ceos-advice-assume-positive-intent/\">assume positive intent</a> in your interactions with others, respecting their expertise and giving them grace in the face of what you might perceive as mistakes.\nWhen <a href=\"/handbook/values/#disagree-commit-and-disagree\">disagreeing</a>, folks sometimes argue against the weakest points of argument, or sometimes argue against a &quot;straw man&quot;. Assume the points are presented in good faith, and instead try to <a href=\"https://desert.glass/newsletter/week-46/\">argue the &quot;steel man&quot; (or the &quot;strong man&quot;)</a>:"
      },
      {
        "title": "Address behavior, but don&apos;t label people",
        "text": "There is a lot of good in <a href=\"http://bobsutton.typepad.com/my_weblog/2006/10/the_no_asshole_.html\">this article</a> about not wanting jerks on our team, but we believe that <strong>jerk</strong> is a label for behavior rather than an inherent classification of a person. We avoid classifications."
      },
      {
        "title": "Say sorry",
        "text": "If you made a mistake, apologize. Saying sorry is not a sign of weakness but one of strength. The people that do the most work will likely make the most mistakes. Additionally, when we share our mistakes and bring attention to them, others can learn from us, and the same mistake is less likely to be repeated by someone else."
      },
      {
        "title": "No ego",
        "text": "Don&apos;t defend a point to win an argument or double-down on a mistake. You are not your work; you don&apos;t have to defend your point. You do have to search for the right answer with help from others."
      },
      {
        "title": "See others succeed",
        "text": "A candidate who has talked to a lot of people inside GitLab said that, compared to other companies, one thing stood out the most: everyone here mentioned wanting to see each other succeed."
      },
      {
        "title": "People are not their work",
        "text": "Always make suggestions about examples of work, not the person. Say, &quot;you didn&apos;t respond to my feedback about the design&quot; instead of &quot;you never listen&quot;. And, when receiving feedback, keep in mind that feedback is the best way to improve and that others want to see you succeed."
      },
      {
        "title": "Do it yourself",
        "text": "Our collaboration value is about helping each other when we have questions, need critique, or need help. No need to brainstorm, wait for consensus, or <a href=\"https://www.inc.com/geoffrey-james/collaboration-is-the-enemy-of-innovation.html\">do with two what you can do yourself</a>."
      },
      {
        "title": "Blameless problem solving",
        "text": "Investigate mistakes in a way that focuses on the situational aspects of a failure&#x2019;s mechanism and the decision-making process that led to the failure rather than cast blame on a person or team. We hold blameless <a href=\"https://codeascraft.com/2012/05/22/blameless-postmortems/\">root cause analyses</a> and <a href=\"/handbook/engineering/management/team-retrospectives/\">retrospectives</a> for stakeholders to speak up without fear of punishment or retribution."
      },
      {
        "title": "Short toes",
        "text": "People joining the company frequently say, &quot;I don&apos;t want to step on anyone&apos;s toes.&quot;\nAt GitLab we should be more accepting of people taking initiative in trying to improve things.\nAs companies grow their speed of decision making goes down since there are more people involved.\nWe should counteract that by having short toes and feel comfortable letting others contribute to our domain."
      },
      {
        "title": "It&apos;s impossible to know everything",
        "text": "We know we must rely on others for the expertise they have that we don&apos;t.\nIt&apos;s OK to admit you don&apos;t know something and to ask for help, even if doing so makes you feel vulnerable.\nIt is never too late to ask a question, and by doing so you can get the information you need to produce results and to strengthen your own skills as well as GitLab as a whole.\nAfter your question is answered, <a href=\"/handbook/handbook-usage/#how-we-use-the-guide-every-day\">please document the answer so that it can be shared</a>."
      }
    ]
  },
  {
    "value": "Results",
    "text": "We do what we promised to each other, customers, users, and investors.",
    "subvalues": [
      {
        "title": "Dogfooding",
        "text": "\n<li>We <a href=\"https://en.wikipedia.org/wiki/Eating_your_own_dog_food\">use our own product</a>.\nOur development organization uses GitLab.com to manage the DevOps lifecycle of the GitLab.</li>\n<li>Our entire company uses GitLab to collaborate on this handbook.\nWe also capture other content and processes in Git repos and manage them with GitLab.</li>\n<li>When something breaks, doesn&apos;t work well, or needs improvement, we are more likely to notice it internally and address it before it impacts our larger community.</li>\n"
      },
      {
        "title": "Measure results not hours",
        "text": "We care about what you achieve; the code you shipped, the user you made happy, and the team member you helped. Someone who took the afternoon\noff shouldn&apos;t feel like they did something wrong. You don&apos;t have to defend how you spend your day. We trust team members to do the right thing instead of having rigid rules. Do not incite competition by proclaiming how many hours you worked yesterday. If you are working too many hours talk to your manager to discuss solutions."
      },
      {
        "title": "Give agency",
        "text": "We give people agency to focus on what they think is most beneficial. If a meeting doesn&apos;t seem interesting and someone&apos;s active participation is not critical to the outcome of the meeting, they can always opt to not attend, or during a video call they can work on other things if they want. Staying in the call may still make sense even if you are working on other tasks, so other peers can ping you and get fast answers when needed. This is particularly useful in multi-purpose meetings where you may be involved for just a few minutes."
      },
      {
        "title": "Write promises down",
        "text": "Agree in writing on measurable goals. Within the company we use <a href=\"/company/okrs/\">public OKRs</a> for that."
      },
      {
        "title": "Growth mindset",
        "text": "You don&apos;t always get results and this will result in criticism from yourself and/or others. We believe our talents can be developed through hard work, good strategies, and input from others. We try to hire people based on <a href=\"https://hbr.org/2016/01/what-having-a-growth-mindset-actually-means\">their trajectory, not their pedigree</a>."
      },
      {
        "title": "Global optimization",
        "text": "This name comes from the <a href=\"https://stripe.com/us/jobs/candidate-info?a=1#culture\">quick guide to Stripe&apos;s culture</a>. Our definition of global optimization is that you do what is best for the organization as a whole. Don&apos;t optimize for the goals of your team when it negatively impacts the goals of other teams, our users, and/or the company. Those goals are also your problem and your job. Keep your team as lean as possible, and help other teams achieve their goals.\nIn the context of <a href=\"#collaboration\">collaboration</a>, this means that if anyone is blocked by you, on a question, your approval, or a merge request review, your top priority is always to unblock them, either directly or through helping them find someone else who can, even if this takes time away from your own or your team&apos;s priorities."
      },
      {
        "title": "Tenacity",
        "text": "We refer to this as &quot;persistence of purpose&quot;. As talked about in <a href=\"https://www.learntoinfluence.com/developing-tenacity-when-facing-opposition/\">The Influence Blog</a>, tenacity is the ability to display commitment to what you believe in. You keep picking yourself up, dusting yourself off, and quickly get going again having learned a little more."
      },
      {
        "title": "Ownership",
        "text": "We expect team members to complete tasks that they are assigned. Having a task means you are responsible for anticipating and solving problems. As an owner you are responsible for overcoming challenges, not suppliers, or other team members. Take initiative and pro-actively inform stakeholders when there is something you might not be able to solve."
      },
      {
        "title": "Sense of urgency",
        "text": "At an exponentially scaling startup time gained or lost has compounding effects. Try to get the results as fast as possible so the compounding of results can begin and we can focus on the next improvement."
      },
      {
        "title": "Ambitious",
        "text": "While we iterate with small changes, we strive for large, ambitious results."
      },
      {
        "title": "Perseverance",
        "text": "Working at GitLab will expose you to situations of various levels of difficulty and complexity. This requires focus, and the ability to defer gratification.\nWe value the ability to maintain focus and motivation when work is tough and asking for help when needed."
      },
      {
        "title": "Bias for Action",
        "text": "It&apos;s important that we keep our focus on action, and don&apos;t fall into the trap of analysis paralysis or sticking to a slow, quiet path without risk. Decisions should be thoughtful, but delivering fast results requires the fearless acceptance of occasionally making mistakes; our bias for action also allows us to course correct quickly."
      },
      {
        "title": "Accepting Uncertainty",
        "text": "The ability to accept that there are things that we don&#x2019;t know about the work we&#x2019;re trying to do, and that the best way to drive out that uncertainty is not by layering analysis and conjecture over it, but rather accepting it and moving forward, driving it out as we go along. Wrong solutions can be fixed, but non-existent ones aren&#x2019;t adjustable at all. <a href=\"https://www.cleverpm.com/2018/08/23/accepting-uncertainty-is-the-key-to-agility/\">The Clever PM Blog</a>"
      },
      {
        "title": "Customer results",
        "text": "Our focus is to improve the results that customers achieve, which requires being aware of <a href=\"https://twitter.com/ryanfalor/status/1182647229414166528?s=12\">the Concur effect</a>, see <a href=\"https://news.ycombinator.com/item?id=21224209\">the Hacker News discussion</a> for a specific UX example.\n<strong>Customer results are more important</strong> than:"
      }
    ]
  },
  {
    "value": "Efficiency",
    "text": "We care about working on the right things, not doing more than needed, and not duplicating work. This enables us to achieve more progress, which makes our work more fulfilling.",
    "subvalues": [
      {
        "title": "Write things down",
        "text": "We document everything: in the handbook, in meeting notes, in issues.\nWe do that because &quot;<a href=\"https://www.quora.com/What-does-The-faintest-pencil-is-better-than-the-sharpest-memory-mean\">the faintest pencil is better than the sharpest memory</a>.&quot;\nIt is far more efficient to read a document at your convenience than to have to ask and explain. Having something in version control also lets everyone contribute suggestions to improve it."
      },
      {
        "title": "Boring solutions",
        "text": "Use the simplest and most boring solution for a problem, and remember that <a href=\"http://mcfunley.com/choose-boring-technology\">&#x201C;boring&#x201D; should not be conflated with &#x201C;bad&#x201D; or &#x201C;technical debt.&#x201D;</a>\nThe speed of innovation for our organization and product is constrained by the total complexity we have added so far, so every little reduction in complexity helps.\nDon&#x2019;t pick an interesting technology just to make your work more fun;\nusing established, popular tech will ensure a more stable and more familiar experience for you and other contributors."
      },
      {
        "title": "Efficiency for the right group",
        "text": "Optimize solutions globally for the broader GitLab community. Making a process efficient for one person or a small group may not be the efficient outcome for the whole GitLab community. As an example, it may be best to choose a process making things slightly less efficient for you while making things massively more efficient for thousands of customers. For example: choose to replace a renewal process that requires 1,000s of customers to spend 2 hours each with one that only takes 60 seconds even when it may make a monthly report less efficient internally! In a decision, ask yourself &quot;for whom does this need to be most efficient?&quot;. Quite often, the answer may be your users, contributors, customers, or team members that are dependent upon your decision."
      },
      {
        "title": "Be respectful of others&apos; time",
        "text": "Consider the time investment you are asking others to make with meetings and a permission process. Try to avoid meetings, and if one is necessary, try to make attendance optional for as many people as possible. Any meeting should have an agenda linked from the invite, and you should document the outcome. Instead of having people ask permission, trust their judgment and offer a consultation process if they have questions."
      },
      {
        "title": "Spend company money like it&apos;s your own",
        "text": "Every dollar we spend will have to be earned back; be as frugal with company money as you are with your own."
      },
      {
        "title": "Frugality",
        "text": "<a href=\"http://www.amazon.jobs/principles\">Amazon states it best</a> with: &quot;Accomplish more with less. Constraints breed resourcefulness, self-sufficiency and invention. There are no extra points for growing headcount, budget size or fixed expense.&quot;"
      },
      {
        "title": "ConvDev",
        "text": "We work according to the principles of <a href=\"http://conversationaldevelopment.com/\">conversational development</a>."
      },
      {
        "title": "Freedom",
        "text": "You should have clear objectives and the freedom to work on them as you see fit."
      },
      {
        "title": "Short verbal answers",
        "text": "Give short answers to verbal questions so the other party has the opportunity to ask more or move on."
      },
      {
        "title": "Keep broadcasts short",
        "text": "And keep one-to-many written communication short, as mentioned in <a href=\"https://hbr.org/2016/09/bad-writing-is-destroying-your-companys-productivity\">this HBR study</a>: &quot;A majority say that what they read is frequently ineffective because it&#x2019;s too long, poorly organized, unclear, filled with jargon, and imprecise.&quot;"
      },
      {
        "title": "Managers of one",
        "text": "We want each team member to be <a href=\"https://signalvnoise.com/posts/1430-hire-managers-of-one\">a manager of one</a> who doesn&apos;t need daily check-ins to achieve their goals."
      },
      {
        "title": "Responsibility over rigidity",
        "text": "When possible we give people the responsibility to make a decision and hold them accountable for that instead of imposing rules and approval processes."
      },
      {
        "title": "Accept mistakes",
        "text": "Not every problem should lead to a new process to prevent them. Additional processes make all actions more inefficient, a mistake only affects one."
      },
      {
        "title": "Move fast by shipping the minimum viable change",
        "text": "We value constant improvement by iterating quickly, month after month. If a task is too big to deliver in one month, cut the scope."
      }
    ]
  },
  {
    "value": "Diversity &amp; Inclusion",
    "text": "Diversity and inclusion are fundamental to the success of GitLab. We aim to make a significant impact in our efforts to <a href=\"/handbook/people-group/code-of-conduct/\">foster an environment where everyone can thrive</a>. We are designing a multidimensional approach to ensure that GitLab is a place where people from every background and circumstance feel like they belong and can contribute. We actively chose to <a href=\"http://www.russellreynolds.com/en/Insights/thought-leadership/Documents/Diversity%20and%20Inclusion%20GameChangers%20FINAL.PDF\">build and institutionalize</a> a culture that is <a href=\"/company/culture/inclusion/\">inclusive</a> and supports all employees equally in the process of achieving their professional goals. We hire globally and encourage hiring in a diverse set of countries. We work to make everyone feel welcome and to increase the participation of underrepresented minorities and nationalities in our community and company. For example our sponsorship of <a href=\"/blog/2016/03/24/sponsorship-update/\">diversity events</a> and a <a href=\"/handbook/incentives/#referral-bonuses\">double referral bonus</a>.",
    "subvalues": [
      {
        "title": "Bias towards asynchronous communication",
        "text": "Take initiative to operate <a href=\"/company/culture/all-remote/meetings/\">asynchronously</a> whenever possible. This shows care and consideration for those who may not be in the same time zone, are traveling outside of their usual time zone, or are <a href=\"/company/culture/all-remote/people/#creating-a-more-efficient-day\">structuring their day</a> around pressing commitments at home or in their community."
      },
      {
        "title": "Reach across company departments",
        "text": "While it&apos;s wise to seek advice from experts within your function, we encourage GitLab team members to seek and provide feedback across departments. This enables the team to iterate more quickly, taking a more diverse perspective into account."
      },
      {
        "title": "Make family feel welcome",
        "text": "One of the unique elements to an <a href=\"/company/culture/all-remote/\">all-remote culture</a> is the ability to visit a person&apos;s home while collaborating. If the tenor of the meeting allows, feel welcome to invite your family members or pets to drop by and greet your colleagues."
      },
      {
        "title": "Shift working hours for a cause",
        "text": "Caregiving, outreach programs, and community service do not conveniently wait for regular business hours to conclude. If there&apos;s a cause or community effort taking place, feel welcome to work with your manager and shift your working hours to be available during a period where you&apos;ll have the greatest impact for good. For colleagues supporting others during these causes, document everything and strive to post recordings so it&apos;s easy for them to catch up."
      },
      {
        "title": "Be a mentor",
        "text": "People feel more included when they&apos;re supported. To encourage this, and to support diversified learning across departments, consider GitLab&apos;s <a href=\"/handbook/people-group/promotions-transfers/#interning-for-learning\">Interning for Learning</a> program."
      },
      {
        "title": "Culture fit is a bad excuse",
        "text": "We don&apos;t hire based on culture or select candidates because we&apos;d like to have a drink with them. We hire and reward employees based on our shared values as detailed on this page. We want a <strong>values fit</strong>, not a culture fit.\nWe want cultural diversity instead of cultural conformity, for example, a <a href=\"https://en.wikipedia.org/wiki/Brogrammer\">brogrammer</a> atmosphere. Said differently: <a href=\"https://twitter.com/Una/status/846808949672366080\">&quot;culture add&quot; &gt; &quot;culture fit&quot;</a> or &quot;hire for culture contribution&quot; since our <a href=\"/company/strategy/#mission\">mission is everyone can contribute</a>."
      },
      {
        "title": "Religion and politics at work <a name=\"dont-bring-religion-or-politics-to-work\"></a>",
        "text": "We generally avoid discussing politics or religion in public forums because it is easy to alienate people that have a minority opinion. This doesn&#x2019;t mean we never discuss these topics. Because we value diversity and inclusion, and want all team members to feel welcome and contribute equally, we encourage free discussion of operational decisions that can move us toward being a more inclusive company. GitLab also publicly supports pro-diversity activities and events."
      },
      {
        "title": "Quirkiness",
        "text": "Unexpected and unconventional things make life more interesting.\nCelebrate and encourage quirky gifts, habits, behavior, and points of view. An example\nis our <a href=\"/handbook/communication/#company-call\">company call</a> where we spend most of our time talking about what we did in our private lives, from fire-throwing to\nknitting. Open source is a great way to interact with interesting\npeople. We try to hire people who think work is a great way to express themselves."
      },
      {
        "title": "Building a safe community",
        "text": "Do <strong>not</strong> make jokes or unfriendly remarks about race, ethnic origin, skin color, gender, or sexual orientation.\nEveryone has the right to feel safe when working for GitLab and/or as a part of the GitLab community.\nWe do not tolerate abuse, <a href=\"/handbook/anti-harassment/\">harassment</a>, exclusion, discrimination or retaliation by/of any community members, including our employees.\nYou can always <strong>refuse</strong> to deal with people who treat you badly and get out of situations that make you feel uncomfortable."
      },
      {
        "title": "Unconscious bias",
        "text": "We recognize that unconscious bias is something that affects everyone and that the\neffect it has on us as humans and our company is large.\nWe are responsible for understanding our own implicit biases and helping others\nunderstand theirs. We are continuously <a href=\"/handbook/communication/unconscious-bias/\">working on getting better at this topic</a>."
      },
      {
        "title": "Inclusive benefits",
        "text": "We list our <a href=\"/handbook/benefits/inc-benefits-us/#transgender-medical-services\">Transgender Medical Services</a> and <a href=\"/handbook/benefits/#parental-leave\">Parental Leave</a> publicly so people don&apos;t have to ask for them during interviews."
      },
      {
        "title": "Inclusive language &amp; pronouns",
        "text": "Use <strong>inclusive</strong> language.\nFor example, prefer &quot;Hi everybody&quot; or &quot;Hi people&quot; to &quot;Hi guys&quot;. While there are several good guides from folks like <a href=\"https://content-guide.18f.gov/inclusive-language/\">18f</a>, <a href=\"https://www.ucalgary.ca/odepd/files/odepd/inclusive-language-guide-june-13-2017.pdf\">University of Calgary</a>, and <a href=\"https://open.buffer.com/inclusive-language-tech/\">Buffer</a> on using inclusive language, we don&apos;t keep an exhaustive list.\nWhen new possibly non-inclusive words arise, we prefer to be proactive and look for an alternative.\nIf your goal is to be inclusive, it is more effective to make a small adjustment in the vocabulary when some people have a problem with it, rather than making a decision to not change it because some people don&#x2019;t think it is a problem.\nAnd if you make a mistake (e.g., accidentally using the wrong pronoun or an outdated phrase), acknowledge it, <strong>apologize gracefully and move on</strong>, no need to dwell on it at the moment.\nAfter, you can work hard to avoid making that mistake in the future.\nPlease also visit our <a href=\"/handbook/people-group/gender-pronouns/\">Gender and Sexual-orientation Identity Definitions and FAQ</a> page if you have questions around pronouns and other gender/sexual-orientation related topics."
      },
      {
        "title": "Inclusive interviewing",
        "text": "This is documented on our page about <a href=\"/handbook/hiring/interviewing/#inclusive-interviewing\">interviewing</a>."
      },
      {
        "title": "See Something, Say Something",
        "text": "As a globally dispersed company, we have employees from many different backgrounds and cultures. That means it is important for each of us to use great judgment in being respectful and inclusive of our teammates. At the same time, we may sometimes not fully realize we have said or done something to offend someone. It is important that our teammates hold each other accountable and let them know if they have unintentionally or intentionally done something so they can learn and gain additional understanding of perspectives different from our own. It is also important that our teammates don&apos;t feel excluded or minimized by the words we use or the things we do. Thus, we all need to speak up when we see something that isn&apos;t respectful or inclusive."
      },
      {
        "title": "Neurodiversity",
        "text": "<a href=\"http://neurocosmopolitanism.com/neurodiversity-some-basic-terms-definitions/\">Neurodiversity</a> is a type of diversity that includes Autism, ADHD, and other styles of neurodivergent functioning. While they often bring <a href=\"https://adhdatwork.add.org/potential-benefits-of-having-an-adhd-employee/\">unique skills and abilities</a>, which can be harnessed for <a href=\"https://hbr.org/2017/05/neurodiversity-as-a-competitive-advantage\">competitive advantage</a> in many fields including <a href=\"https://www.forbes.com/sites/samcurry/2019/05/13/neurodiversity-a-competitive-advantage-in-cybersecurity/\">cybersecurity</a>, neurodivergent individuals are often discriminated against, and sometimes have trouble making it through traditional hiring processes. These individuals should be able to contribute as GitLab team-members. The handbook, values, strategy, and interviewing process should never discriminate against the neurodivergent."
      },
      {
        "title": "Family and friends first, work second",
        "text": "Long lasting relationships <a href=\"https://www.youtube.com/watch?v=6_N_uvq41Pg\">are the rocks of life</a> and come before work. As someone said in our #thanks channel, after helping a family member for 5 days after a hurricane: &quot;THANK YOU to GitLab for providing a culture where &quot;family first&quot; is truly meant&quot;."
      }
    ]
  },
  {
    "value": "Iteration",
    "text": "We do the <a href=\"/blog/2017/01/04/behind-the-scenes-how-we-built-review-apps/\">smallest thing possible and get it out as quickly as possible</a>. If you make suggestions that can be excluded from the first iteration turn them into a separate issue that you link. Don&apos;t write a large plan, only write the first step. Trust that you&apos;ll know better how to proceed after something is released. You&apos;re doing it right if you&apos;re slightly embarrassed by the minimal feature set shipped in the first iteration. This value is the one people most underestimate when they join GitLab. The impact both on your work process and on how much you achieve is greater than anticipated. In the beginning it hurts to make decisions fast and to see that things are changed with less consultation. But frequently the simplest version turns out to be the best one.",
    "subvalues": [
      {
        "title": "Don&apos;t wait",
        "text": "Don&#x2019;t wait. When you have something of value like a potential blog post or a small fix implement it straight away. Right now everything is fresh in your head and you have the motivation, inspiration is perishable. Don&#x2019;t wait until you have a better version. Don&#x2019;t wait until you record a better video. Don&#x2019;t wait for an event (like Contribute). Inventory that isn&#x2019;t released is a liability since it has to be managed, gets outdated, and you miss out on the feedback you get when you would have implemented it straight away."
      },
      {
        "title": "Reduce cycle time",
        "text": "Short iterations reduce <a href=\"/product/cycle-analytics/\">our cycle time</a>."
      },
      {
        "title": "Work as part of the community",
        "text": "Small iterations make it easier to work with the wider community. Their work looks more like our work, and our work is also quicker to receive feedback."
      },
      {
        "title": "Minimum Viable Change (MVC)",
        "text": "We encourage MVCs to be as small as possible. Always look to make the quickest change possible to improve the user&apos;s outcome. If you validate that the change adds more value than what is there now, then do it. No need to wait for something more robust. More information is in the product handbook, but this applies to everything we do in all functions. Specifically for product MVCs, there is additional responsibility to validate with customers that we&apos;re adding useful functionality without obvious bugs or usability issues."
      },
      {
        "title": "Make a proposal",
        "text": "If you need to decide something as a team, make a concrete proposal instead of calling a meeting to get everyone&apos;s input. Having a proposal will be a much more effective use of everyone&apos;s time. Every meeting should be a review of a proposal. We should be <a href=\"https://www.fastcompany.com/3033567/brainstorming-doesnt-work-try-this-technique-instead\">brainwriting on our own instead of brainstorming out loud</a>. State the underlying problem so that people have enough context to propose reasonable alternatives. The people that receive the proposal should not feel left out and the person making it should not feel bad if a completely different proposal is implemented. Don&apos;t let your desire to be involved early or to see your solution implemented stand in the way of getting to the best outcome. If you don&apos;t have a proposal don&apos;t let that stop you from highlighting a problem, please state that you couldn&apos;t think of a good solution and list any solutions you considered."
      },
      {
        "title": "Everything is in draft",
        "text": "At GitLab we rarely put draft on any content or proposals. Everything is always in draft and subject to change."
      },
      {
        "title": "Under construction",
        "text": "As we get more users they will ask for stability, especially in our UX. We should always optimize for the long term. This means that users will be inconvenienced in the short term, but current and future users will enjoy a better product in the end."
      },
      {
        "title": "Low level of shame",
        "text": "When we talked to Nat Friedman he said: &quot;A low level of shame is intrinsic to your culture.&quot;. This captures the pain we feel by shipping something that isn&apos;t where we want it to be yet."
      },
      {
        "title": "Focus on Improvement",
        "text": "We believe great companies sound negative because they focus on what they can improve, not on what is working.\nOur first question in every conversation with someone outside the company should be: what do you think we can improve?\nThis doesn&apos;t mean we don&apos;t recognize our successes, for example see our <a href=\"#say-thanks\">Say Thanks</a> value.\nWe are positive about the future of the company; we are present day pessimists and long term optimists."
      },
      {
        "title": "Do things that don&apos;t scale",
        "text": "First optimize for speed and results; when it is a success figure out how to scale it. Great examples are in <a href=\"http://paulgraham.com/ds.html\">this article by Paul Graham</a>."
      },
      {
        "title": "Make two-way door decisions",
        "text": "Most decisions are easy to reverse, have the <a href=\"/handbook/people-group/directly-responsible-individuals/\">directly responsible individual</a> make them without approval. As <a href=\"http://minimumviablestrategy.com/lessons/leadership/one-way-and-two-way-door-decisions/\">Jeff Bezos describes</a> only when you can&apos;t reverse them should there be a more thorough discussion."
      },
      {
        "title": "Changing proposals isn&apos;t iteration",
        "text": "Changing a proposal isn&apos;t iterating. Only when the change is rolled out to users can you learn from feedback. When you&apos;re changing a proposal based on different opinions you&apos;re frequently wasting time; it would be better to roll out a small change quickly and get real world feedback."
      },
      {
        "title": "Make small merge requests",
        "text": "When you are submitting a merge request for a code change, or a process change in\nthe handbook, keep it as small as possible. If you are adding a new page to the\nhandbook, create the new page with a small amount of initial content, get it merged\nquickly, and then add additional sections iteratively with subsequent merge requests.\nSimilarly, if you are adding a large feature to the software, create small, iterative merge requests for the different aspects. These merge requests might not provide immediate value, as long as they do not break anything, and have appropriate tests for new functionality. If you aren&apos;t sure how to split something into small, iterative merge requests, consider kindly asking your team and/or maintainers for suggestions.\nIf you are asked to review a merge request that is too big, consider kindly asking\nthe author to split it into smaller merge requests before reviewing."
      },
      {
        "title": "When we iterate slowly",
        "text": "In some cases, rapid iteration can get in the way of <a href=\"#results\">results</a>. For example when\nadjusting our marketing messaging (where consistency is key), product categories (where we&apos;ve\nset development plans), sales methodologies (where we&apos;ve trained our teams) and this values page (where\nwe use the values to guide all GitLab team-members). In those instances we add additional review to the approval\nprocess, not to prohibit, but to be more deliberate in our iteration. The change process is documented on the page and takes place via merge request approvals."
      }
    ]
  },
  {
    "value": "Transparency",
    "text": "Be open about as many things as possible. By making information\npublic we can reduce the threshold to contribution and make collaboration easier.\nUse public issue trackers, projects, and repositories when possible.",
    "subvalues": [
      {
        "title": "Public by default",
        "text": "Everything at GitLab is public by default.\nIf something is not public there should be a reference in the handbook that states a confidential decision was taken with a link to our Not Public guidelines unless legal feels it carries undue risk.\nThe public process does two things: allows others to benefit from the conversation and acts as a filter; since there is only a limited amount of time, we prioritize conversations that a wider audience can benefit from."
      },
      {
        "title": "Not Public",
        "text": "Most things are public by default. However there are <a href=\"/handbook/communication/#not-public\">some things that are not public</a> because of the sensitivity of the issue or requirements."
      },
      {
        "title": "Directness",
        "text": "Being direct is about being transparent with each other. We try to channel our inner Ben Horowitz by being <a href=\"https://medium.com/@producthunt/ben-horowitz-s-best-startup-advice-7e8c09c8de1b\">both straightforward\nand kind, an uncommon cocktail of no-bullshit and no-asshole</a>. Feedback is always about your work and not your person. That doesn&apos;t mean it will be easy to give nor receive it."
      },
      {
        "title": "Surface issues constructively",
        "text": "Be transparent to the right people (up) at the right time (when still actionable). If you make a mistake, don&apos;t worry; correct it and <strong>proactively</strong> let the affected party, your team, and the CEO know what happened, how you corrected it and how, if needed, you changed the process to prevent future mistakes."
      },
      {
        "title": "Anyone and anything can be questioned",
        "text": "Any past decisions and guidelines are open to questioning as long as you act in accordance with them until they are changed."
      },
      {
        "title": "Disagree, commit, and disagree",
        "text": "Everything can be questioned but as long as a decision is in place we expect people to commit to executing it, which is <a href=\"http://ryanestis.com/leadership/disagree-and-commit-to-get-things-done/\">a common principle</a>. Every decision can be changed, our <a href=\"https://youtu.be/4BIsON95fl8?t=2034\">best decision was one that changed an earlier one</a>. When you want to reopen the conversation on something, show that your argument is informed by previous conversations and <a href=\"/handbook/values/#assume-positive-intent\">assume the decision was made with the best intent</a>. You have to achieve results on every decision while it stands, even when you are trying to have it changed. You should communicate with the <a href=\"/handbook/people-group/directly-responsible-individuals/\">DRI</a> who can change the decision instead of someone who can&apos;t."
      },
      {
        "title": "Transparency is only a value if you do it when it is hard",
        "text": "For example, many companies in California do not give you the real reason why they declined your application because it increases the chance of legal action. We want to only reject people for the right reasons and we want to give them the opportunity to grow by getting this feedback. Therefore, we&apos;ll accept the increased risk of holding ourselves to a high standard of making decisions and do the right thing by telling them what we thought. Other examples are being transparent about <a href=\"http://disq.us/p/1r9gceh\">security incidents</a>, and participating in and contributing to Live Broadcasts."
      },
      {
        "title": "Single Source of Truth",
        "text": "By having most company communications and work artifacts be internet-public, we have one single source of truth for all GitLab team-members, users, customers, and other community members. We don&#x2018;t need separate artifacts with different permissions for different people."
      },
      {
        "title": "Find the Limit",
        "text": "We accept that we occasionally make mistakes in the direction of transparency. In other words, we accept it if we&apos;re sometimes publicizing information that should have remained confidential in retrospect. Most companies become non-transparent over time because they don&apos;t accept any mistakes. Making mistakes and reflecting on them means we know where the limit of transparency is."
      },
      {
        "title": "Say why, not just what",
        "text": "Transparent changes have the reasons for the change laid out clearly along with the change itself. This leads to fewer questions later on because people already have some understanding. A change with no public explanation can lead to a lot of extra rounds of questioning which is less efficient. Avoid using terms such as &quot;industry standard&quot; or &quot;best practices&quot; as they are vague, opaque, and don&apos;t provide enough context as a reason for a change."
      },
      {
        "title": "Reproducibility",
        "text": "Enable everybody involved to come to the same conclusion as you. This not only involves <a href=\"#say-why-not-just-what\">reasoning</a>, but also, for example providing raw data and not just plots; scripts to automate tasks and not just the work they have done; and documenting steps while analyzing a problem. Do your best to make the line of thinking transparent to others even <a href=\"/handbook/leadership/#making-decisions\">if they may disagree</a>."
      },
      {
        "title": "Accountability",
        "text": "Increases accountability when making decisions and difficult choices."
      }
    ]
  }
]